…
`schema("full")` provides a more complete list of schema entities. The
GraphQL query performed by this function is summariized in the comment.

Each schema entry is associated with fields; discover these with, e.g.,

    ## { __type(name: subject) { fields{ name } } }
    fields("subject")

    ## # A tibble: 224 x 3
    ##    type_name field                        type  
    ##    <chr>     <chr>                        <chr> 
    ##  1 subject   id                           ID    
    ##  2 subject   submitter_id                 String
    ##  3 subject   type                         String
    ##  4 subject   project_id                   String
    ##  5 subject   created_datetime             String
    ##  6 subject   updated_datetime             String
    ##  7 subject   abnormal_wbc_history         String
    ##  8 subject   abused_prescription_pill     String
    ##  9 subject   active_encephalitis_at_death String
    ## 10 subject   active_meningitis_at_death   String
    ## # … with 214 more rows

`values()` performs a query against the database. The first argument is
the name of the entity to be retrieved; subsequent arguments are the
fields within that entity. The number of records returned is given by
`.n`, which has a default value of 10. Use `.n = 0` to retrieve all
entities.

    ## { subject(first: 50) { id project_id sex } }
    values("subject", "id", "project_id", "sex", .n = 50)

    ## # A tibble: 50 x 3
    ##    id                                   project_id sex   
    ##    <chr>                                <chr>      <chr> 
    ##  1 84115750-d24b-4d21-adf3-493e0ed235c9 CF-GTEx    Male  
    ##  2 a45430bf-a5db-472e-9064-319e364fc646 CF-GTEx    Female
    ##  3 6ca83bf9-3974-4c60-b043-e686307aad42 CF-GTEx    Male  
    ##  4 34a97682-03f0-47a1-a432-638ae71fb5a8 CF-GTEx    Male  
    ##  5 741f5454-3c16-48da-8adf-281268432132 CF-GTEx    Male  
    ##  6 f4f3bb48-ad05-4d85-8349-7ec112ab7004 CF-GTEx    Male  
    ##  7 fd60edda-294c-429b-a1a0-0a8e3d77a420 CF-GTEx    Male  
    ##  8 7f169ccb-d30b-4a94-9410-3e4d9a2e196f CF-GTEx    Male  
    ##  9 99fde72a-bf88-48ca-ba67-f5c1c989712f CF-GTEx    Female
    ## 10 aedc8073-b97a-4a31-be35-c4a53d40470c CF-GTEx    Male  
    ## # … with 40 more rows
…
Subject, sample and sequencing entities
---------------------------------------

The main entities in Gen3 are subject, sample, and sequencing. Get the
fields available in the subject entity like this:

    ## { __type(name: subject) { fields { name type { name } } } }
    fields("subject") # any `name` of schema()

    ## # A tibble: 224 x 3
    ##    type_name field                        type  
    ##    <chr>     <chr>                        <chr> 
    ##  1 subject   id                           ID    
    ##  2 subject   submitter_id                 String
    ##  3 subject   type                         String
    ##  4 subject   project_id                   String
    ##  5 subject   created_datetime             String
    ##  6 subject   updated_datetime             String
    ##  7 subject   abnormal_wbc_history         String
    ##  8 subject   abused_prescription_pill     String
    ##  9 subject   active_encephalitis_at_death String
    ## 10 subject   active_meningitis_at_death   String
    ## # … with 214 more rows

Similarly, the fields for ‘sample’ and ‘sequencing’ are

    ## { __type(name: sample) { fields { name type { name } } } }
    fields("sample")

    ## # A tibble: 29 x 3
    ##    type_name field                 type  
    ##    <chr>     <chr>                 <chr> 
    ##  1 sample    id                    ID    
    ##  2 sample    submitter_id          String
    ##  3 sample    type                  String
    ##  4 sample    project_id            String
    ##  5 sample    created_datetime      String
    ##  6 sample    updated_datetime      String
    ##  7 sample    autolysis_score       String
    ##  8 sample    bss_collection_site   String
    ##  9 sample    current_material_type String
    ## 10 sample    dbgap_sample_id       String
    ## # … with 19 more rows

    ## { __type(name: sequencing) { fields { name type { name } } } }
    fields("sequencing")

    ## # A tibble: 85 x 3
    ##    type_name  field                 type  
    ##    <chr>      <chr>                 <chr> 
    ##  1 sequencing id                    ID    
    ##  2 sequencing submitter_id          String
    ##  3 sequencing type                  String
    ##  4 sequencing project_id            String
    ##  5 sequencing created_datetime      String
    ##  6 sequencing updated_datetime      String
    ##  7 sequencing alignment_method      String
    ##  8 sequencing alternative_aligments Int   
    ##  9 sequencing analysis_freeze       String
    ## 10 sequencing analyte_type          String
    ## # … with 75 more rows
…
The return value is a list with structure like that of the query. values
for each subject have been simiplified to a tibble. The elements of the
list are accessible using standard *R* operations

    result$subject

    ## # A tibble: 3,202 x 4
    ##    id                                   population sex    submitter_id
    ##    <chr>                                <chr>      <chr>  <chr>       
    ##  1 987efda6-b4cf-4148-b2a0-1d64b471d625 STU        Female HG03894     
    ##  2 a59edd9e-8d43-4a56-8352-c1e532a6ec1e STU        Male   HG03896     
    ##  3 28401aec-4c28-4e08-ab12-efe57ed3bc10 STU        Female HG03898     
    ##  4 6f36ecee-00fb-411e-98b7-37a168e5165e STU        Male   HG03899     
    ##  5 fde92d12-c014-4d53-b2c0-77ece237e44b STU        Female HG03897     
    ##  6 0465a439-dfca-44ce-95aa-24e9a19c8157 IBS        Female HG01679     
    ##  7 86c89cad-3656-4cce-af5f-015db00906d2 GBR        Male   HG00242     
    ##  8 36881c4a-b563-4de6-aa31-2c326f2c704a GBR        Male   HG00243     
    ##  9 c4df7392-6499-4bea-92c9-221c58fab73b GBR        Male   HG00244     
    ## 10 85a7a071-18e7-44b3-941b-9c428c4c5dd9 GBR        Female HG00245     
    ## # … with 3,192 more rows
…
    query <- '{
        sample(
            project_id: "CF-GTEx"
            first: 0
        ) {
            id
            tissue_type
        }
    }'
    result <- query_graphql(query)
    result$sample

    ## # A tibble: 48,678 x 2
    ##    id                                   tissue_type   
    ##    <chr>                                <chr>         
    ##  1 d4c4573a-c629-4860-89c3-d84b8725d5cb Adipose Tissue
    ##  2 726e479e-2d6d-4a7e-bf4a-31455d1b9610 Muscle        
    ##  3 1e027803-691c-43ac-b8fb-5028708cb587 Nerve         
    ##  4 c341efb7-94d3-4788-997b-70820aa4cd21 Blood Vessel  
    ##  5 6f59a691-4a7f-48e2-94be-9cc71439ee15 Brain         
    ##  6 38a0d44a-6995-4d90-b506-1239aba87596 Pituitary     
    ##  7 f0e95e6e-be80-4149-b06a-b24a10a00f4f Blood         
    ##  8 f752e7ea-e34b-41c0-ab74-2bcba60b1677 Blood         
    ##  9 5e73ff7f-d659-440f-b866-c01ece569e41 Blood         
    ## 10 d06ede98-60d5-4251-9bc0-147442f0dbf7 Blood         
    ## # … with 48,668 more rows

The tibble is easily explored using standard tidy paradigms, e.g.,

    result$sample %>%
        count(tissue_type) %>%
        arrange(desc(n))

    ## # A tibble: 31 x 2
    ##    tissue_type        n
    ##    <chr>          <int>
    ##  1 <NA>           26228
    ##  2 Blood           3480
    ##  3 Brain           3326
    ##  4 Skin            2011
    ##  5 Esophagus       1568
    ##  6 Blood Vessel    1473
    ##  7 Adipose Tissue  1327
    ##  8 Heart           1036
    ##  9 Muscle          1017
    ## 10 Lung             826
    ## # … with 21 more rows
…
